\relax 
\catcode `:\active 
\catcode `;\active 
\catcode `!\active 
\catcode `?\active 
\bibstyle{alpha}
\select@language{french}
\@writefile{toc}{\select@language{french}}
\@writefile{lof}{\select@language{french}}
\@writefile{lot}{\select@language{french}}
\@writefile{toc}{\contentsline {section}{\numberline {1}D\IeC {\'e}finitions math\IeC {\'e}matiques}{1}}
\newlabel{convolution}{{3}{1}}
\@writefile{toc}{\contentsline {section}{\numberline {2}Exercice}{2}}
\@writefile{toc}{\contentsline {section}{\numberline {3}Exercice}{2}}
\@writefile{toc}{\contentsline {section}{\numberline {4}Convolution de deux signaux}{2}}
\@writefile{toc}{\contentsline {section}{\numberline {5}Convolution d'un signal par une gaussienne}{3}}
\@writefile{toc}{\contentsline {section}{\numberline {6}Annexe I : d\IeC {\'e}calage vers la gauche}{4}}
\newlabel{LastPage}{{}{4}}
\xdef\lastpage@lastpage{4}
\gdef\lastpage@lastpageHy{}
